<svg style="clip-rule:evenodd;fill-rule:evenodd;image-rendering:optimizeQuality;shape-rendering:geometricPrecision;text-rendering:geometricPrecision" version="1.0" viewBox="0 0 7799.9 2200" xml:space="preserve" xmlns="http://www.w3.org/2000/svg" xmlns:cc="http://creativecommons.org/ns#" xmlns:dc="http://purl.org/dc/elements/1.1/" xmlns:rdf="http://www.w3.org/1999/02/22-rdf-syntax-ns#"><metadata><rdf:RDF><cc:Work rdf:about=""><dc:format>image/svg+xml</dc:format><dc:type rdf:resource="http://purl.org/dc/dcmitype/StillImage"/><dc:title/></cc:Work></rdf:RDF></metadata><defs>
    <symbol id="icon-boxberry-black" viewBox="0 0 32 32">
      <title>boxberry-black</title>
      <path stroke-width="1" stroke-miterlimit="4" stroke-linecap="butt" stroke-linejoin="miter" d="M25.346 9.846c0 1.763-1.429 3.192-3.192 3.192s-3.192-1.429-3.192-3.192c0-1.763 1.429-3.192 3.192-3.192s3.192 1.429 3.192 3.192z"></path>
      <path stroke-width="1" stroke-miterlimit="4" stroke-linecap="butt" stroke-linejoin="miter" d="M25.346 22.154c0 1.763-1.429 3.192-3.192 3.192s-3.192-1.429-3.192-3.192c0-1.763 1.429-3.192 3.192-3.192s3.192 1.429 3.192 3.192z"></path>
      <path stroke-width="1" stroke-miterlimit="4" stroke-linecap="butt" stroke-linejoin="miter" d="M13.038 9.846c0 1.763-1.429 3.192-3.192 3.192s-3.192-1.429-3.192-3.192c0-1.763 1.429-3.192 3.192-3.192s3.192 1.429 3.192 3.192z"></path>
      <path stroke-width="1" stroke-miterlimit="4" stroke-linecap="butt" stroke-linejoin="miter" d="M6.885 16c0 1.763-1.429 3.192-3.192 3.192s-3.192-1.429-3.192-3.192c0-1.763 1.429-3.192 3.192-3.192s3.192 1.429 3.192 3.192z"></path>
      <path stroke-width="1" stroke-miterlimit="4" stroke-linecap="butt" stroke-linejoin="miter" d="M31.5 16c0 1.763-1.429 3.192-3.192 3.192s-3.192-1.429-3.192-3.192c0-1.763 1.429-3.192 3.192-3.192s3.192 1.429 3.192 3.192z"></path>
      <path stroke-width="1" stroke-miterlimit="4" stroke-linecap="butt" stroke-linejoin="miter" d="M13.038 22.154c0 1.763-1.429 3.192-3.192 3.192s-3.192-1.429-3.192-3.192c0-1.763 1.429-3.192 3.192-3.192s3.192 1.429 3.192 3.192z"></path>
      <path stroke-width="1" stroke-miterlimit="4" stroke-linecap="butt" stroke-linejoin="miter" d="M19.193 16c0 1.763-1.429 3.192-3.192 3.192s-3.192-1.429-3.192-3.192c0-1.763 1.429-3.192 3.192-3.192s3.192 1.429 3.192 3.192z"></path>
      <path stroke-width="1" stroke-miterlimit="4" stroke-linecap="butt" stroke-linejoin="miter" d="M19.193 28.308c0 1.763-1.429 3.192-3.192 3.192s-3.192-1.429-3.192-3.192c0-1.763 1.429-3.192 3.192-3.192s3.192 1.429 3.192 3.192z"></path>
      <path stroke-width="1" stroke-miterlimit="4" stroke-linecap="butt" stroke-linejoin="miter" d="M19.193 3.692c0 1.763-1.429 3.192-3.192 3.192s-3.192-1.429-3.192-3.192c0-1.763 1.429-3.192 3.192-3.192s3.192 1.429 3.192 3.192z"></path>
    </symbol>
    <symbol id="icon-boxberry-black" viewBox="0 0 32 32">
      <title>boxberry-black</title>
      <path stroke-width="1" stroke-miterlimit="4" stroke-linecap="butt" stroke-linejoin="miter" d="M25.346 9.846c0 1.763-1.429 3.192-3.192 3.192s-3.192-1.429-3.192-3.192c0-1.763 1.429-3.192 3.192-3.192s3.192 1.429 3.192 3.192z"></path>
      <path stroke-width="1" stroke-miterlimit="4" stroke-linecap="butt" stroke-linejoin="miter" d="M25.346 22.154c0 1.763-1.429 3.192-3.192 3.192s-3.192-1.429-3.192-3.192c0-1.763 1.429-3.192 3.192-3.192s3.192 1.429 3.192 3.192z"></path>
      <path stroke-width="1" stroke-miterlimit="4" stroke-linecap="butt" stroke-linejoin="miter" d="M13.038 9.846c0 1.763-1.429 3.192-3.192 3.192s-3.192-1.429-3.192-3.192c0-1.763 1.429-3.192 3.192-3.192s3.192 1.429 3.192 3.192z"></path>
      <path stroke-width="1" stroke-miterlimit="4" stroke-linecap="butt" stroke-linejoin="miter" d="M6.885 16c0 1.763-1.429 3.192-3.192 3.192s-3.192-1.429-3.192-3.192c0-1.763 1.429-3.192 3.192-3.192s3.192 1.429 3.192 3.192z"></path>
      <path stroke-width="1" stroke-miterlimit="4" stroke-linecap="butt" stroke-linejoin="miter" d="M31.5 16c0 1.763-1.429 3.192-3.192 3.192s-3.192-1.429-3.192-3.192c0-1.763 1.429-3.192 3.192-3.192s3.192 1.429 3.192 3.192z"></path>
      <path stroke-width="1" stroke-miterlimit="4" stroke-linecap="butt" stroke-linejoin="miter" d="M13.038 22.154c0 1.763-1.429 3.192-3.192 3.192s-3.192-1.429-3.192-3.192c0-1.763 1.429-3.192 3.192-3.192s3.192 1.429 3.192 3.192z"></path>
      <path stroke-width="1" stroke-miterlimit="4" stroke-linecap="butt" stroke-linejoin="miter" d="M19.193 16c0 1.763-1.429 3.192-3.192 3.192s-3.192-1.429-3.192-3.192c0-1.763 1.429-3.192 3.192-3.192s3.192 1.429 3.192 3.192z"></path>
      <path stroke-width="1" stroke-miterlimit="4" stroke-linecap="butt" stroke-linejoin="miter" d="M19.193 28.308c0 1.763-1.429 3.192-3.192 3.192s-3.192-1.429-3.192-3.192c0-1.763 1.429-3.192 3.192-3.192s3.192 1.429 3.192 3.192z"></path>
      <path stroke-width="1" stroke-miterlimit="4" stroke-linecap="butt" stroke-linejoin="miter" d="M19.193 3.692c0 1.763-1.429 3.192-3.192 3.192s-3.192-1.429-3.192-3.192c0-1.763 1.429-3.192 3.192-3.192s3.192 1.429 3.192 3.192z"></path>
    </symbol>
    <symbol id="icon-boxberry" viewBox="0 0 32 32">
      <title>boxberry</title>
      <path fill="none" stroke="#ffb300" stroke-width="0.6531" stroke-miterlimit="4" stroke-linecap="butt" stroke-linejoin="miter" style="stroke: var(--color1, #ffb300)" d="M25.52 9.846c0 1.859-1.507 3.366-3.366 3.366s-3.366-1.507-3.366-3.366c0-1.859 1.507-3.366 3.366-3.366s3.366 1.507 3.366 3.366z"></path>
      <path fill="none" stroke="#ffb300" stroke-width="0.6531" stroke-miterlimit="4" stroke-linecap="butt" stroke-linejoin="miter" style="stroke: var(--color1, #ffb300)" d="M25.52 22.154c0 1.859-1.507 3.366-3.366 3.366s-3.366-1.507-3.366-3.366c0-1.859 1.507-3.366 3.366-3.366s3.366 1.507 3.366 3.366z"></path>
      <path fill="none" stroke="#ffb300" stroke-width="0.6531" stroke-miterlimit="4" stroke-linecap="butt" stroke-linejoin="miter" style="stroke: var(--color1, #ffb300)" d="M13.212 9.846c0 1.859-1.507 3.366-3.366 3.366s-3.366-1.507-3.366-3.366c0-1.859 1.507-3.366 3.366-3.366s3.366 1.507 3.366 3.366z"></path>
      <path fill="none" stroke="#ffb300" stroke-width="0.6531" stroke-miterlimit="4" stroke-linecap="butt" stroke-linejoin="miter" style="stroke: var(--color1, #ffb300)" d="M7.058 16c0 1.859-1.507 3.366-3.366 3.366s-3.366-1.507-3.366-3.366c0-1.859 1.507-3.366 3.366-3.366s3.366 1.507 3.366 3.366z"></path>
      <path fill="none" stroke="#ffb300" stroke-width="0.6531" stroke-miterlimit="4" stroke-linecap="butt" stroke-linejoin="miter" style="stroke: var(--color1, #ffb300)" d="M31.673 16c0 1.859-1.507 3.366-3.366 3.366s-3.366-1.507-3.366-3.366c0-1.859 1.507-3.366 3.366-3.366s3.366 1.507 3.366 3.366z"></path>
      <path fill="none" stroke="#ffb300" stroke-width="0.6531" stroke-miterlimit="4" stroke-linecap="butt" stroke-linejoin="miter" style="stroke: var(--color1, #ffb300)" d="M13.212 22.154c0 1.859-1.507 3.366-3.366 3.366s-3.366-1.507-3.366-3.366c0-1.859 1.507-3.366 3.366-3.366s3.366 1.507 3.366 3.366z"></path>
      <path fill="none" stroke="#ffb300" stroke-width="0.6531" stroke-miterlimit="4" stroke-linecap="butt" stroke-linejoin="miter" style="stroke: var(--color1, #ffb300)" d="M19.366 16c0 1.859-1.507 3.366-3.366 3.366s-3.366-1.507-3.366-3.366c0-1.859 1.507-3.366 3.366-3.366s3.366 1.507 3.366 3.366z"></path>
      <path fill="none" stroke="#ffb300" stroke-width="0.6531" stroke-miterlimit="4" stroke-linecap="butt" stroke-linejoin="miter" style="stroke: var(--color1, #ffb300)" d="M19.366 28.308c0 1.859-1.507 3.366-3.366 3.366s-3.366-1.507-3.366-3.366c0-1.859 1.507-3.366 3.366-3.366s3.366 1.507 3.366 3.366z"></path>
      <path fill="#ffb300" style="fill: var(--color1, #ffb300)" d="M19.692 3.692c0 2.039-1.653 3.692-3.692 3.692s-3.692-1.653-3.692-3.692c0-2.039 1.653-3.692 3.692-3.692s3.692 1.653 3.692 3.692z"></path>
    </symbol> 
  <symbol id="icon-startup" viewBox="0 0 32 32">
  <title>startup</title>
  <path d="M25.413 6.869c-0.504-0.505-1.175-0.782-1.889-0.782s-1.384 0.278-1.888 0.782c-1.041 1.041-1.041 2.736 0 3.777 0.521 0.521 1.204 0.781 1.888 0.781s1.368-0.26 1.889-0.781c1.041-1.041 1.041-2.736 0-3.777zM24.526 9.759c-0.552 0.552-1.45 0.552-2.002 0s-0.552-1.45 0-2.002c0.267-0.267 0.623-0.415 1.001-0.415s0.734 0.147 1.001 0.415c0.552 0.552 0.552 1.45 0 2.002z"></path>
  <path d="M20.812 11.449c-0.504-0.505-1.175-0.782-1.888-0.782s-1.384 0.278-1.889 0.782c-1.041 1.041-1.041 2.736 0 3.777 0.521 0.521 1.204 0.781 1.889 0.781s1.368-0.26 1.888-0.781c1.041-1.041 1.041-2.736 0-3.777zM19.925 14.339c-0.552 0.552-1.45 0.552-2.002 0s-0.552-1.45 0-2.002c0.267-0.267 0.623-0.415 1.001-0.415s0.734 0.147 1.001 0.415c0.552 0.552 0.552 1.45 0 2.002z"></path>
  <path d="M7.838 25.716c-0.31-0.154-0.687-0.028-0.841 0.282l-0.747 1.501c-0.325 0.653-0.979 1.089-1.706 1.139l-0.869 0.060c-0.147 0.010-0.244-0.063-0.288-0.108s-0.118-0.142-0.108-0.288l0.059-0.869c0.050-0.727 0.486-1.381 1.139-1.706l1.501-0.747c0.31-0.154 0.436-0.531 0.282-0.841s-0.531-0.436-0.841-0.282l-1.501 0.747c-1.050 0.523-1.751 1.574-1.831 2.744l-0.059 0.869c-0.032 0.469 0.14 0.929 0.473 1.261 0.306 0.306 0.72 0.477 1.15 0.477 0.037 0 0.074-0.001 0.111-0.004l0.869-0.059c1.17-0.080 2.221-0.782 2.744-1.831l0.747-1.501c0.154-0.31 0.028-0.687-0.282-0.841z"></path>
  <path d="M31.567 0.511c-0.294-0.29-0.7-0.442-1.112-0.415l-0.584 0.037c-5.239 0.334-10.141 2.863-13.451 6.938l-1.375 1.693-3.599-0.106c-0.006-0-0.012-0-0.018-0-2.854 0-5.538 1.112-7.556 3.13l-3.686 3.686c-0.175 0.175-0.231 0.438-0.142 0.669s0.306 0.389 0.553 0.401l7.803 0.401-0.318 0.392c-0.16 0.197-0.186 0.472-0.064 0.695 0.122 0.225 0.25 0.446 0.384 0.664l-1.85 2.197c-0.158 0.188-0.192 0.451-0.087 0.673 0.404 0.854 0.941 1.621 1.595 2.281 0.67 0.675 1.453 1.228 2.328 1.642 0.085 0.040 0.177 0.060 0.268 0.060 0.141 0 0.281-0.048 0.395-0.14 0.399-0.323 0.858-0.707 1.303-1.078 0.317-0.264 0.641-0.535 0.944-0.784 0.181 0.109 0.364 0.214 0.55 0.315 0.094 0.051 0.197 0.076 0.3 0.076 0.137 0 0.272-0.044 0.385-0.132l0.428-0.332 0.403 7.836c0.013 0.248 0.17 0.465 0.401 0.553 0.073 0.028 0.149 0.042 0.225 0.042 0.163 0 0.324-0.064 0.444-0.184l3.686-3.686c2.018-2.018 3.13-4.702 3.13-7.556v-3.437l1.454-1.128c4.358-3.382 7.012-8.482 7.282-13.991l0.015-0.305c0.020-0.413-0.137-0.816-0.431-1.106zM2.071 15.364l2.688-2.688c1.779-1.779 4.144-2.76 6.66-2.762l2.63 0.077-4.669 5.749-7.309-0.376zM11.549 23.367c-0.328 0.273-0.663 0.553-0.975 0.81-0.603-0.326-1.148-0.734-1.624-1.214-0.461-0.465-0.854-0.995-1.171-1.579l1.355-1.608c0.41 0.55 0.858 1.070 1.342 1.558l0.001 0.001 0 0 0.001 0c0.537 0.541 1.115 1.037 1.728 1.485-0.216 0.18-0.438 0.365-0.656 0.547zM21.993 20.48c0 2.519-0.981 4.887-2.762 6.669l-2.688 2.688-0.375-7.299 5.826-4.521 0 2.463zM30.73 1.861c-0.252 5.144-2.73 9.904-6.798 13.061l-9.841 7.637c-0.816-0.477-1.577-1.040-2.273-1.678l3.318-3.318c0.245-0.245 0.245-0.642 0-0.887s-0.642-0.245-0.887 0l-3.315 3.315c-0.609-0.675-1.149-1.409-1.609-2.194l8.069-9.934c3.090-3.804 7.666-6.164 12.557-6.476l0.584-0.037c0.077-0.005 0.128 0.033 0.151 0.056s0.062 0.074 0.059 0.151l-0.015 0.305z"></path>
  </symbol>
<symbol id="icon-thumbs-up" viewBox="0 0 35 32">
  <title>thumbs-up</title>
  <path d="M17.025 2.652c0.242-2.606 4.134-2.743 4.957-0.451 0.829 3.409 0.431 6.994 0.235 10.468 3.291 0.15 6.668-0.379 9.907 0.3 1.842 0.425 1.94 2.436 1.887 3.971-0.196 0.242-0.575 0.725-0.771 0.967 1.058 1.587 0.575 3.409-0.686 4.689 0.222 1.711 0.183 3.474-1.247 4.676 0.131 0.372 0.398 1.13 0.529 1.502-0.522 1.019-0.908 2.645-2.377 2.534-5.701 0.091-11.409 0.033-17.117 0.033-1.13 0.105-2.051-0.581-2.971-1.117-2.599 1.672-7.275 1.946-8.614-1.417-0.248-3.513-0.059-7.046-0.111-10.566-0.327-2.488 2.331-4.199 4.584-3.899 1.737-0.235 3.259 0.647 4.63 1.587 4.996-2.436 6.034-8.405 7.164-13.277zM18.521 1.874c-1.215 5.682-2.442 12.65-8.333 15.36 0.196 4.075 0.059 8.15 0.111 12.232 1.881 0.921 4.010 0.705 6.041 0.712 4.611-0.059 9.221 0.065 13.832-0.085 0.438-1.548-0.346-2.678-1.58-3.513 0.947-0.366 1.887-0.731 2.828-1.123-0.013-0.47-0.039-1.411-0.052-1.881-0.549-0.49-1.091-0.986-1.633-1.476 0.738-0.255 1.482-0.509 2.22-0.758 0.294-0.594 0.581-1.189 0.869-1.789-0.79-0.581-1.587-1.169-2.371-1.757 0.751-0.359 1.502-0.718 2.253-1.071-0.039-0.797-0.085-1.587-0.124-2.384-4.212-0.731-8.503-0.085-12.748-0.451 2.077-3.128 1.182-7.073 1.117-10.593 0.033-1.332-1.45-1.45-2.429-1.424zM3.474 15.647c-0.516 0.483-1.032 0.967-1.554 1.443-0.078 3.846-0.085 7.686 0 11.533 0.516 0.477 1.025 0.953 1.528 1.43 1.365-0.052 2.821 0.255 4.114-0.281 1.606-0.79 1.319-2.841 1.378-4.323-0.098-2.678 0.202-5.394-0.196-8.052-0.64-2.305-3.468-1.698-5.27-1.75z"></path>
</symbol>
<symbol id="icon-doc-check" viewBox="0 0 28 32">
  <title>doc-check</title>
  <path d="M0.61 2.971c-0.103-1.298 1.063-2.475 2.367-2.361 4.987-0.048 9.98 0.018 14.968-0.012 2.041 2.216 4.166 4.347 6.225 6.545-0.036 3.013 0.018 6.026-0.042 9.032-0.241-0.145-0.737-0.435-0.978-0.58-0.266-2.439-0.030-4.903-0.139-7.354-1.763-0.097-3.677 0.26-5.325-0.543-1.564-1.534-0.7-4.039-0.918-5.995-4.963 0.018-9.938-0.229-14.883 0.163-0.338 8.459-0.157 16.942-0.097 25.413 3.303 1.032 6.817-0.006 10.155 0.64 0.036 0.199 0.115 0.592 0.157 0.791-3.007 0.181-6.032 0.109-9.045 0.036-1.093 0.042-1.799-0.833-2.512-1.521 0.151-8.085-0.006-16.169 0.066-24.254zM17.842 2.355c0.036 1.419-0.054 2.868 0.308 4.263 1.292 0.785 2.904 0.411 4.341 0.555-1.473-1.678-2.989-3.327-4.649-4.818z"></path>
  <path d="M6.424 8.483c4.039-0.072 8.079-0.018 12.118-0.024-0.121 0.266-0.362 0.809-0.483 1.075-3.713 0.151-7.457 0.181-11.164-0.024-0.121-0.254-0.35-0.767-0.471-1.026z"></path>
  <path d="M6.926 12.951c3.967-0.103 8.030-0.429 11.961 0.254-0.851 0.918-2.137 0.7-3.242 0.749-3.091-0.042-6.189 0.036-9.28-0.091 0.139-0.223 0.417-0.682 0.561-0.912z"></path>
  <path d="M16.453 15.928c4.679-1.878 10.675 1.226 11.303 6.352 0.863 4.842-3.611 9.485-8.429 9.153-4.697 0.187-8.833-4.42-8.151-9.045 0.35-2.934 2.542-5.452 5.277-6.46zM17.812 16.67c-2.952 0.628-5.374 3.272-5.585 6.309-0.29 3.689 2.85 7.137 6.521 7.336 4.13 0.586 8.374-3.109 7.915-7.354-0.139-4.269-4.824-7.348-8.851-6.291z"></path>
  <path d="M6.364 17.546c2.198 0.085 4.577-0.531 6.611 0.543-1.926 0.682-4.027 0.652-6.032 0.38-0.145-0.229-0.435-0.694-0.58-0.924z"></path>
  <path d="M17.975 23.221c1.515-1.582 3.085-3.122 4.77-4.528 0.809 0.809 1.618 1.624 2.427 2.439-2.325 2.379-4.752 4.667-7.173 6.949-1.654-1.419-3.2-2.965-4.697-4.546 0.791-0.761 1.588-1.515 2.397-2.27 0.761 0.646 1.521 1.304 2.276 1.956zM18.017 24.574c-0.996-0.495-2.246-2.699-3.164-1.020 0.93 1.117 1.998 2.101 3.013 3.134 2.035-1.751 3.931-3.665 5.832-5.561-0.254-0.266-0.749-0.797-1.002-1.063-1.57 1.491-3.134 2.995-4.679 4.51z"></path>
  <path d="M6.799 22.43c0.894-0.513 2.029-0.362 3.007-0.211 1.117 0.549-0.978 0.785-1.322 0.682-0.773 0.145-1.334-0.018-1.685-0.471z"></path>
</symbol>
<symbol id="icon-car-check" viewBox="0 0 42 32">
<title>car-check</title>
<path d="M1.264 1.702c1.16-1.184 2.856-0.896 4.337-0.936 5.857 0.056 11.722 0.048 17.579-0.008 1.336 0.032 2.96-0.152 3.913 1.016 0.432 1.056 0.592 2.208 0.84 3.313 2.8 0.080 5.625-0.184 8.409 0.184 2.016 2.352 3.465 5.121 5.273 7.633-0.104 4.233 0.176 8.473-0.088 12.698-0.592 1.496-2.496 1.208-3.761 1.536-0.936 2-2.416 4.177-4.897 4.129-2.784 0.376-4.793-1.992-5.625-4.361-3.641-0.016-7.289-0.040-10.938 0.016-0.744 2.232-2.464 4.497-5.073 4.345-2.744 0.32-4.705-2.064-5.329-4.473-1.784-0.032-3.641-0.048-5.193-1.056 0.104-2.176 0.104-4.361 0-6.537 1.944-1.208 4.297-0.832 6.473-0.88 10.986 0.040 21.971 0.016 32.957 0.016-0.008-1.592 0.096-3.192-0.16-4.769-1.144-2.48-2.976-4.553-4.329-6.913-2.656-0.104-5.313-0.096-7.961-0.032-0.104 3.369 0.248 6.761-0.144 10.106-0.288 0.288-0.872 0.872-1.168 1.16-0.552-4.849 0.080-9.745-0.352-14.594-0.12-0.208-0.36-0.632-0.48-0.84-8.049-0.888-16.282 0.576-24.284-0.752zM2.344 19.873c0.016 1.752 0.016 3.497 0.016 5.249 1.144 0.096 2.28 0.184 3.425 0.264 1.216-2.152 3.473-4.289 6.161-3.673 2.072 0.288 3.305 2.080 4.337 3.697 3.721 0.016 7.441 0.032 11.154-0.024 0.896-1.536 1.968-3.224 3.849-3.601 2.824-0.856 5.385 1.376 6.449 3.817 0.568-0.040 1.72-0.12 2.296-0.16 0.064-1.872 0.096-3.745 0.104-5.617-12.594 0.016-25.196-0.080-37.79 0.048zM9.137 29.226c1.864 1.24 3.993 0.12 5.369-1.272 0.24-2.144-0.752-4.761-3.248-4.785-3.256-0.488-4.953 4.457-2.12 6.057zM30.741 23.601c-1.448 0.88-2.256 2.968-1.224 4.465 1.24 2.416 5.217 2.184 6.201-0.352 1.424-2.792-2.448-5.793-4.977-4.113z"></path>
<path d="M20.963 5.574c0.456-0.12 1.376-0.368 1.832-0.488-2.856 4.249-7.137 7.289-10.762 10.866-2.048-2.16-5.153-3.609-6.017-6.673 2.488 0.808 4.129 2.928 6.001 4.609 3.024-2.728 5.793-5.737 8.945-8.313z"></path>
<path d="M29.308 7.967c1.68 0.040 3.36 0.040 5.041 0.024 1.64 2.128 3.457 4.169 4.529 6.673-3.233 0.152-6.465 0.136-9.697 0.048-0.128-2.248-0.096-4.505 0.128-6.745zM30.557 9.639c0.024 1.216 0.040 2.432 0.064 3.641 1.864 0.008 3.729 0.040 5.593 0.088-0.744-1.328-1.6-2.584-2.536-3.785-1.040 0.016-2.080 0.040-3.12 0.056z"></path>
</symbol>
  <symbol id="icon-cart" viewBox="0 0 37 32">
  <title>cart</title>
  <path d="M0.152 0.952c2.792 0.024 6.784-1.272 8.488 1.768 2.064 4.912 2.328 10.376 4.048 15.4 4.384-0.168 8.632-1.568 12.976-2.112 2.776-0.792 6.296-0.368 8.368-2.688 0.96-2.768 0.368-5.824 0.488-8.704-6.992-0.048-13.992 0.032-20.984-0.008-1.2 0.184-2.136-0.512-2.984-1.264 8.472-0.44 16.968-0.112 25.448-0.184-0.048 3.2 0.192 6.408-0.088 9.592-0.528 2.504-3.216 3.552-5.48 3.904-5.856 1.048-11.712 2.112-17.568 3.2 0.208 0.456 0.616 1.352 0.824 1.808 6.368 0.168 12.744 0 19.112 0.064 1.272-0.144 2.4 0.32 3.152 1.368-6.656 0.24-13.312 0.032-19.976 0.136-1.448 0.008-3.504 0.088-4.032-1.648-1.92-5.84-2.52-12.056-4.544-17.856-1.424-2.728-5.424-0.4-7.248-2.776z"></path>
  <path d="M14.416 8.656c2.080-2.176 5.328-0.976 7.976-1.288 2.656 0.32 5.944-0.912 8.016 1.296-5.32 0.312-10.672 0.32-15.992-0.008z"></path>
  <path d="M14.6 12.68c0.68-1.032 1.712-1.576 2.96-1.408 3.904 0.064 7.864-0.296 11.736 0.232 0.28 0.296 0.848 0.888 1.128 1.192-5.272 0.168-10.552 0.2-15.824-0.016z"></path>
  <path d="M14.616 24.144c2.4-0.872 5.336 1.232 4.952 3.848-0.144 3.4-5.224 4.488-6.944 1.688-1.52-1.928-0.264-4.904 1.992-5.536zM14.688 25.688c-1.72 0.84-1.44 3.84 0.6 3.992 1.88 0.688 3.616-1.784 2.336-3.264-0.544-1.088-1.952-0.904-2.936-0.728z"></path>
  <path d="M29.848 24.080c2.368-0.704 5.152 1.352 4.728 3.912-0.048 3.344-4.992 4.448-6.808 1.848-1.56-1.976-0.416-5.248 2.080-5.76zM29.768 25.64c-2.424 1.36-0.488 5.232 2.048 3.896 2.696-1 0.504-5.208-2.048-3.896z"></path>
  </symbol><style type="text/css"><![CDATA[
    .fil0 {fill:#2AA345;fill-rule:nonzero}
    .fil1 {fill:url(#id0)}
   ]]></style><linearGradient id="id0" x1="5520.8" x2="7820.6" y1="460.71" y2="460.71" gradientUnits="userSpaceOnUse"><stop style="stop-color:#00A4E1" offset="0"/><stop style="stop-color:#0079C0" offset="1"/></linearGradient></defs><path class="fil0" d="m4363.3 243.57-492.76 1067.6h-49.99v-1300h-700.02v2200h594.08c156 0 297.78-90.7 363.19-232.38l492.72-1067.6h50.03v1300h699.98v-2200h-594.05c-156.03 0-297.81 90.73-363.18 232.37z" style="fill-rule:nonzero;fill:#2aa345"/><path class="fil0" d="m1737.2 300.33-291.59 1010.8h-50l-291.61-1010.8c-49.39-171.24-206.11-289.13-384.32-289.13h-699.08v2200h700.01v-1300h49.99l400 1300h500.01l399.99-1300h50.01v1300h699.99v-2200h-699.07c-178.22 0-334.93 117.89-384.33 289.13z" style="fill-rule:nonzero;fill:#2aa345"/><path class="fil0" d="m5620.6 1011.2v1200h698.64v-699.98h751.35c326.42 0 603.35-208.92 706.43-500.03z" style="fill-rule:nonzero;fill:#2aa345"/><path class="fil1" d="m6568.1 910.63v-0.91h-22.81c-16.01-0.81-31.92-1.94-47.74-3.43v-0.1h-0.94c-9.13-0.87-18.22-1.87-27.29-2.95v-0.58h-4.69c-6.69-0.83-13.35-1.71-20-2.67v-0.85h-5.8c-19.4-2.88-38.65-6.22-57.7-10.1v-0.49h-2.33c-3.94-0.81-7.85-1.68-11.78-2.54v-0.98h-4.53c-4.38-0.97-8.75-1.97-13.11-3v-0.53h-2.2c-3.97-0.94-7.95-1.87-11.91-2.85v-0.68h-2.75c-16.89-4.25-33.61-8.92-50.17-13.95v-0.16h-0.51l-10.07-3.13v-0.4h-1.3c-3.1-0.98-6.21-1.94-9.29-2.95v-0.58h-1.73l-8.85-2.97v-0.55h-1.64l-8.94-3.02v-0.51h-1.41c-3.07-1.07-6.13-2.2-9.18-3.3v-0.23h-0.65c-9.25-3.33-18.44-6.78-27.57-10.35v-0.23h-0.6c-5.71-2.24-11.38-4.55-17.04-6.88v-0.18h-0.45l-6.6-2.7v-0.83h-2.01c-5.24-2.21-10.44-4.51-15.63-6.8v-0.25h-0.57l-6.49-2.85v-0.68h-1.48c-25.93-11.7-51.31-24.4-76.13-38.01v-0.8h-1.48l-5.57-3.05v-0.47h-0.83c-14.03-7.84-27.87-15.99-41.51-24.43v-0.27h-0.43c-3.4-2.1-6.78-4.26-10.15-6.39v-0.66h-1.05l-9.53-6.11v-0.95h-1.44c-13.86-9.04-27.49-18.4-40.9-28.03v-0.19h-0.27c-4.64-3.33-9.26-6.67-13.84-10.07v-0.51h-0.67c-4.51-3.35-8.98-6.74-13.44-10.15v-0.44h-0.58c-5.74-4.41-11.42-8.88-17.06-13.4v-0.71h-0.9c-14.11-11.32-27.91-22.99-41.43-34.98v-0.3h-0.34l-3.19-2.87v-0.65h-0.73l-2.8-2.52v-1.01h-1.13c-26.72-24.17-52.24-49.62-76.48-76.28v-1.33h-1.2l-2.33-2.59v-0.94h-0.85l-2.67-2.96v-0.57h-0.51l-3.02-3.35v-0.18h-0.16c-7.14-8.08-14.11-16.3-21.01-24.59v-0.1h-0.08c-4.73-5.69-9.41-11.42-14.03-17.2v-0.44h-0.35c-3.43-4.3-6.86-8.59-10.23-12.93v-1.18h-0.89l-2.64-3.48v-0.05h-0.03l-7.03-9.28v-1.3h-0.99l-2.53-3.36v-0.17h-0.12c-5.96-8.05-11.77-16.23-17.52-24.44v-0.25h-0.17c-2.31-3.31-4.62-6.6-6.89-9.94v-0.65h-0.45c-2.23-3.27-4.41-6.56-6.6-9.86v-0.72h-0.47c-2.2-3.31-4.43-6.61-6.59-9.95v-0.63h-0.41c-2.24-3.46-4.44-6.97-6.64-10.46v-0.13h-0.08c-3.55-5.62-7.06-11.27-10.51-16.96v-0.68h-0.41c-8.4-13.86-16.48-27.92-24.28-42.17v-0.16h-0.09l-3.44-6.32v-0.74h-0.41l-3.12-5.8v-1.25h-0.65l-2.88-5.57v-1.49h-0.77l-2.75-5.32v-1.73h-0.89c-7.05-13.83-13.81-27.84-20.28-42v-0.34h-0.16c-2.35-5.14-4.63-10.3-6.9-15.48v-2.15h-0.94l-2.58-5.9v-1.16h-0.51c-2.24-5.24-4.39-10.51-6.55-15.79v-1.85h-0.76l-2.77-6.76v-0.29h-0.11c-4.9-12.28-9.54-24.7-14-37.2v-1.61h-0.58l-2.95-8.37v-2.21h-0.74l-2.78-8.23v-2.36h-0.79l-2.74-8.23v-2.35h-0.74l-2.79-8.93v-1.65h-0.52l-3.01-9.73v-0.86h-0.25c-3.67-12.26-7.09-24.64-10.33-37.07v-1.73h-0.46l-3.07-12.18v-1.93h-0.47c-1.04-4.22-2.07-8.43-3.06-12.67v-1.44h-0.35c-1.11-4.8-2.13-9.61-3.17-14.44v-3.2h-0.7c-0.98-4.55-1.9-9.11-2.83-13.69v-0.42h-0.08c-1.13-5.51-2.23-11.04-3.24-16.58h1550c17.29 0 34.43 0.64 51.43 1.79v0.67h9.3c11.08 0.89 22.1 2 33.04 3.36v0.17h1.47c6.59 0.84 13.16 1.77 19.69 2.77v0.76h4.59c6.73 1.08 13.43 2.26 20.11 3.51v0.02h0.1c5.87 1.11 11.72 2.28 17.54 3.52v0.01h0.06c4.7 1 9.38 2.03 14.05 3.12v0.4h1.66c4.16 0.98 8.32 1.98 12.45 3.03v0.5h1.98c4.06 1.04 8.1 2.16 12.13 3.27v0.26h0.97c11.55 3.2 22.98 6.67 34.31 10.4v0.18h0.55l10.03 3.4v0.13h0.36c5.79 2.01 11.55 4.09 17.28 6.23v0.83h2.2c2.8 1.06 5.6 2.08 8.38 3.17v0.35h0.87c16.46 6.48 32.65 13.54 48.52 21.12v0.05h0.12c2.33 1.11 4.62 2.27 6.94 3.41v0.12h0.23l6.82 3.37v0.16h0.32l6.74 3.46v0.06h0.12c10.7 5.54 21.24 11.33 31.63 17.36v0.28h0.48c5.77 3.36 11.49 6.8 17.16 10.31v0.28h0.46c3.38 2.09 6.77 4.2 10.12 6.34v0.71h1.09c10.4 6.69 20.62 13.64 30.66 20.82v0.35h0.48c4.58 3.29 9.13 6.61 13.63 10v0.58h0.76c4.49 3.38 8.94 6.81 13.35 10.29v0.29h0.36c5.83 4.61 11.59 9.31 17.28 14.09v0.03h0.04c10.83 9.09 21.41 18.47 31.71 28.15v0.07h0.08l3.45 3.26v0.27h0.27l3.26 3.16v0.36h0.37c5.84 5.65 11.61 11.37 17.27 17.2v0.44h0.43l3.09 3.18v0.35h0.33l3.2 3.42v0.11h0.1c9.66 10.23 19.04 20.74 28.12 31.5v0.25h0.21c4.7 5.58 9.36 11.22 13.9 16.94v0.7h0.57c3.39 4.28 6.72 8.61 10.02 12.97v1.14h0.88c3.28 4.35 6.51 8.75 9.7 13.18v0.93h0.68c9.63 13.4 18.79 27.16 27.54 41.2v1.13h0.71c2.15 3.47 4.25 6.96 6.35 10.47v0.12h0.07l3.46 5.79v1.26h0.75c7.16 12.28 13.94 24.79 20.41 37.5v1.31h0.66l2.87 5.7v1.35h0.68l2.85 5.86v1.2h0.57l2.96 6.27v0.78h0.37l3.15 6.77v0.29h0.13c3.63 7.99 7.1 16.06 10.46 24.2v0.49h0.2c2.35 5.71 4.64 11.46 6.85 17.24v0.4h0.15l3.38 8.95v1.64h0.59c6.32 17.3 12 34.9 17.05 52.76v0.15h0.04c1.19 4.19 2.38 8.38 3.49 12.61v1.5h0.38c1.09 4.17 2.13 8.36 3.15 12.56v1.55h0.39c1.1 4.55 2.12 9.13 3.13 13.72v0.4h0.09c1.21 5.5 2.35 11.01 3.44 16.55v1.08h0.21c1.18 6.06 2.28 12.14 3.32 18.25v2.92h0.5c1.09 6.61 2.11 13.25 3.03 19.91v4.79h0.65c3.99 30.4 6.15 61.35 6.4 92.77v15.87c-0.4 30.1-2.61 59.77-6.47 88.91h-0.58v4.35c-0.94 6.82-1.98 13.59-3.11 20.35h-0.42v2.53c-1.05 6.23-2.2 12.44-3.41 18.63h-0.12v0.61l-0.88 4.4h-1203.7c-11.28 0-22.49-0.23-33.69-0.57z" style="fill:url(#id0)"/></svg>
