<svg id="icon-choose-product" viewBox="0 0 17 32">
  <title>choose-product</title>
  <path
    d="M0.241 0.924c5.476-0.041 10.953-0.002 16.429-0.018 0.079 4.271 0.070 8.552 0.007 12.82-0.853 0.177-1.734 0.048-2.599 0.084-1.271-0.039-2.553 0.077-3.817-0.054l-0.218-0.175c0.064-0.068 0.191-0.207 0.254-0.277 1.956-0.082 3.919-0.005 5.88-0.032 0.002-3.951 0.002-7.902 0-11.851-5.145 0-10.292 0-15.437 0-0.002 3.949 0.005 7.898-0.002 11.847 1.716 0.061 3.443-0.104 5.149 0.088-0.041 0.107-0.12 0.32-0.161 0.427-1.825 0.048-3.654 0.043-5.479-0.005-0.041-4.283-0.025-8.57-0.007-12.854z">
  </path>
  <path
    d="M3.368 3.624c3.425-0.007 6.852-0.027 10.274 0.011 0.043 0.844 0.073 1.702-0.2 2.515-0.111 1.203 0.025 2.415-0.059 3.62-0.030 0.561-0.558 1.012-1.112 0.989-0.692 0.025-1.389 0.041-2.079-0.027 0.007-0.113 0.025-0.34 0.032-0.454 0.747-0.082 1.502 0.030 2.247-0.077 0.288-0.077 0.413-0.395 0.397-0.669 0.032-1.221-0.002-2.442 0.009-3.663-2.921-0.007-5.842-0.002-8.763-0.002 0.041 1.346-0.084 2.703 0.059 4.042 0.363 0.592 1.237 0.127 1.741 0.524-0.129 0.538-0.763 0.288-1.146 0.338-0.499 0.018-1.010-0.306-1.132-0.801-0.195-1.502 0.175-3.055-0.243-4.53-0.095-0.599-0.043-1.212-0.025-1.816zM3.874 4.128c-0.002 0.399-0.002 0.801 0 1.201 3.087 0 6.173 0 9.26 0 0-0.402 0-0.801 0-1.201-3.087 0.002-6.173 0.002-9.26 0z">
  </path>
  <path d="M5.477 6.892c1.65-0.118 3.316-0.014 4.972-0.052 0.277-0.009 1.266-0.011 0.724 0.492-1.913 0.082-3.842 0.077-5.758 0.005l-0.182-0.309 0.243-0.136z"></path>
  <path d="M5.091 8.175c0.933-0.406 1.993-0.213 2.98-0.191 0.057 0.111 0.172 0.331 0.229 0.443-1.062-0.030-2.245 0.309-3.209-0.252z"></path>
  <path
    d="M6.698 10.113c0.567-0.894 2.104-0.817 2.599 0.109 0.311 0.547 0.272 1.198 0.284 1.807-0.011 1.241 0.011 2.483-0.018 3.724 0.822-0.456 1.934-0.334 2.401 0.558 0.547-0.338 1.223-0.645 1.859-0.345 0.458 0.182 0.631 0.681 0.847 1.080 0.674-0.216 1.575-0.393 2.056 0.277 0.828 1.257 0.433 2.841 0.524 4.255-0.111 1.859 0.336 3.845-0.504 5.588-0.66 1.387-1.838 2.476-3.155 3.236-0.399 0.252-0.89 0.197-1.339 0.229-1.212 0.007-2.426 0.043-3.636-0.052-0.626-0.020-1.139-0.443-1.532-0.894-0.717-0.837-1.273-1.804-1.695-2.819-0.91-2.136-1.836-4.262-2.757-6.391-0.286-0.706-0.599-1.505-0.325-2.263 0.345-0.826 1.541-1.105 2.197-0.474 0.76 0.726 1.232 1.686 1.818 2.546 0.045-2.9 0.002-5.801 0.020-8.701 0.009-0.506 0.066-1.042 0.356-1.471zM6.879 11.393c-0.029 2.481-0.002 4.961-0.011 7.439-0.016 0.933 0.070 1.877-0.113 2.798-1.128-0.967-1.541-2.521-2.644-3.518-0.449-0.445-1.275-0.091-1.373 0.499-0.054 0.645 0.225 1.253 0.463 1.834 0.937 2.151 1.866 4.305 2.789 6.461 0.456 1.001 1.010 1.988 1.818 2.751 0.506 0.531 1.291 0.399 1.952 0.452 1.144-0.009 2.315 0.104 3.441-0.116 1.786-0.955 3.395-2.68 3.509-4.793 0.036-1.743-0.005-3.486 0.016-5.229 0-0.765 0.023-1.589-0.384-2.27-0.27-0.456-0.885-0.379-1.298-0.195-0.81 0.327 0.161 1.87-0.794 1.906-0.193-0.837 0.007-1.732-0.256-2.553-0.315-0.763-1.511-0.574-1.761 0.145-0.243 0.767-0.095 1.591-0.191 2.383-0.1-0.061-0.304-0.184-0.406-0.243-0.229-0.858 0.123-1.816-0.227-2.655-0.354-0.797-1.713-0.547-1.804 0.309-0.068 0.851 0.007 1.704-0.066 2.555-0.352-0.098-0.581-0.345-0.488-0.726-0.014-2.433 0.023-4.866-0.014-7.299 0.023-0.626-0.359-1.369-1.076-1.316-0.756-0.077-1.087 0.756-1.080 1.38z">
  </path>
</svg>
