<svg id="icon-hamburger" viewBox="0 0 32 32">
  <title>hamburger</title>
  <path d="M31.62 0h-31.62v2.664h31.62v-2.664z"></path>
  <path d="M31.62 9.33h-31.62v2.664h31.62v-2.664z"></path>
  <path d="M31.62 18.66h-31.62v2.664h31.62v-2.664z"></path>
  <path d="M31.62 27.989h-31.62v2.664h31.62v-2.664z"></path>
</svg>
