<svg id="icon-percents-10" viewBox="0 0 32 32">
  <title>percents-10</title>
  <path
    d="M7.278 0.491c1.866-0.491 3.949-0.134 5.511 1.011 1.529 1.086 2.52 2.894 2.574 4.774 0.091 2.063-0.971 4.106-2.671 5.263-1.854 1.309-4.406 1.52-6.46 0.569-2.14-0.946-3.663-3.174-3.669-5.529-0.091-2.809 2.011-5.423 4.714-6.089zM7.27 1.297c-1.977 0.594-3.574 2.357-3.857 4.417-0.32 1.977 0.629 4.049 2.263 5.177 1.574 1.126 3.729 1.357 5.506 0.594 1.763-0.72 3.109-2.403 3.349-4.3 0.277-1.897-0.606-3.883-2.146-5.006-1.434-1.091-3.397-1.42-5.114-0.883z">
  </path>
  <path d="M25.827 0.894c0.323-0.497 0.969 0.197 0.54 0.551-6.623 9.197-13.26 18.383-19.88 27.583-0.12 0.377-0.814 0.649-0.911 0.094 0.069-0.383 0.363-0.666 0.566-0.983 6.58-9.069 13.080-18.197 19.686-27.246z"></path>
  <path d="M6.010 4.857c-0.394-0.783 0.977-0.689 1.437-0.889 0.003 1.554 0 3.106 0 4.657-0.14 0-0.417 0-0.557 0-0.003-1.346 0-2.694-0.003-4.040-0.294 0.091-0.586 0.18-0.877 0.271z"></path>
  <path
    d="M9.741 4.026c1.48-0.4 2.614 1.197 2.397 2.546 0 1.231-1.149 2.434-2.429 2.071-2.069-0.534-2.040-4.103 0.031-4.617zM9.524 4.651c-1.189 0.829-1.023 3.231 0.517 3.546 1.206 0.1 1.729-1.377 1.486-2.363-0.1-0.909-1.126-1.754-2.003-1.183z">
  </path>
  <path
    d="M21.501 17.211c3.071-0.951 6.714 0.74 7.823 3.789 0.771 1.969 0.406 4.326-0.931 5.966-1.363 1.74-3.671 2.654-5.857 2.369-2.017-0.22-3.903-1.46-4.869-3.249-0.986-1.769-0.994-4.040-0.009-5.811 0.794-1.489 2.226-2.6 3.843-3.063zM21.85 17.917c-1.817 0.471-3.371 1.906-3.906 3.714-0.597 1.854-0.020 3.997 1.374 5.343 1.546 1.563 4.034 2.071 6.071 1.251 1.691-0.634 3.043-2.143 3.417-3.917 0.383-1.657-0.117-3.469-1.263-4.717-1.389-1.563-3.68-2.234-5.694-1.674z">
  </path>
  <path d="M20.193 21.080c0.506-0.191 1.026-0.323 1.56-0.403-0.023 1.509 0.043 3.023-0.029 4.531l-0.406 0.243c-0.274-1.371-0.057-2.786-0.129-4.174-0.22 0.063-0.666 0.186-0.886 0.246l-0.111-0.443z"></path>
  <path d="M23.521 20.917c0.951-0.591 2.32-0.12 2.697 0.934 0.7 1.406-0.123 3.694-1.923 3.523-2.091-0.211-2.42-3.443-0.774-4.457zM24.058 21.223c-1.546 0.637-1.291 3.689 0.531 3.651 1.983-0.277 1.586-4.197-0.531-3.651z"></path>
</svg>
