<svg id="icon-happy-man" viewBox="0 0 27 32">
  <title>happy-man</title>
  <path
    d="M8.917 1.182c1.877-1.169 4.228-1.076 6.336-0.774 2.712 0.499 5.635 1.875 6.731 4.578-0.12 0.315-0.424 0.513-0.638 0.76 0.2 1.387 0.107 2.801-0.163 4.171 0.672-0.068 1.359 0.474 1.121 1.196-0.32 1.319-0.579 3.102-2.074 3.579-0.468 1.051-1.028 2.054-1.609 3.046-0.227 0.797-0.059 1.659-0.104 2.481 1.182 0.52 2.079 1.512 3.243 2.065 1.45 0.622 2.966 1.094 4.405 1.738 0.352 0.552 0.438 1.239 0.654 1.856-2.633 3.166-6.541 5.165-10.599 5.724-5.858 0.878-12.151-1.26-16.023-5.799 0.152-0.66 0.343-1.314 0.536-1.963 1.271-0.445 2.551-0.865 3.833-1.28 1.561-0.409 2.635-1.709 4.015-2.467-0.020-0.608 0.066-1.232-0.059-1.831-0.611-1.071-1.191-2.163-1.614-3.327-1.6-0.52-1.763-2.424-1.968-3.833-0.148-0.59 0.281-1.13 0.896-1.089-0.263-2.020-0.742-4.387 0.502-6.18 1.044-0.71 1.459-2.020 2.578-2.651zM7.939 2.955c-0.359 0.833-1.437 1.080-1.598 2.040-0.545 2.127-0.125 4.38 0.397 6.473l0.397 0.123c-0.315-1.999-0.409-4.346 0.99-5.98 0.629 0.699 1.462 1.171 2.372 1.391 1.688 0.431 3.459 0.626 5.195 0.415 1.33-0.157 2.732-0.325 3.845-1.142 0.234 0.306 0.517 0.601 0.604 0.992 0.295 1.375 0.009 2.778-0.138 4.151 0.079-0.048 0.238-0.145 0.318-0.193 0.513-1.813 0.776-3.763 0.418-5.633 0.213-0.227 0.429-0.452 0.645-0.676-1.387-2.696-4.541-3.869-7.396-4.126-2.163-0.175-4.832 0.095-6.046 2.165zM7.773 11.999c-0.488 0.036-0.974 0.057-1.462 0.077-0.123-0.454-0.229-0.912-0.334-1.371-0.154-0.054-0.311-0.107-0.468-0.157-0.045 1.039 0.188 2.086 0.595 3.041 0.175 0.513 0.699 0.715 1.18 0.831 0.549 1.38 1.144 2.76 2.036 3.96 0.826 1.142 1.945 2.22 3.382 2.483 1.359 0.254 2.689-0.418 3.661-1.321 1.575-1.466 2.626-3.393 3.477-5.345 0.374-0.113 0.815-0.193 1.014-0.576 0.527-0.885 0.842-1.918 0.928-2.946-0.157-0.3-0.513-0.216-0.71-0.011-0.127 0.347-0.191 0.715-0.272 1.073-0.472 0.082-0.944 0.143-1.421 0.184 0.138-1.634 0.613-3.307 0.12-4.927-1.666 0.844-3.586 0.999-5.424 1.037-2.043-0.095-4.251-0.293-5.921-1.6-0.894 1.727-0.726 3.722-0.381 5.567zM13.397 21.445c-1.752 0.043-3.254-1.098-4.292-2.415 0.014 0.513 0.018 1.026 0.023 1.541 1.452 1.139 2.919 2.265 4.382 3.393 1.325-0.962 2.646-1.931 3.976-2.885 0.869-0.483 0.304-1.654 0.47-2.444-1.123 1.416-2.66 2.748-4.559 2.81zM5.973 22.595c-0.032 1.555-0.007 3.109-0.014 4.664 0.679 0.014 1.403-0.166 2.040 0.145-0.574 0.774-1.203 1.505-1.807 2.256 1.307 0.567 2.664 1.019 4.065 1.287-0.692-3.313-1.375-6.629-2.079-9.94-0.738 0.524-1.468 1.060-2.206 1.589zM8.717 20.929c0.463 2.045 0.858 4.106 1.305 6.155 0.996-0.944 2.045-1.831 3.052-2.762-1.448-1.135-2.925-2.238-4.357-3.393zM13.942 24.329c1.028 0.926 2.063 1.85 3.105 2.762 0.474-2.022 0.921-4.051 1.412-6.071-1.489 1.126-3.016 2.199-4.516 3.309zM18.994 21.097c-0.758 3.3-1.518 6.597-2.281 9.895 1.505-0.266 2.955-0.753 4.357-1.353-0.649-0.758-1.4-1.423-2.024-2.199-0.018-0.113-0.052-0.336-0.068-0.447 0.688 0.032 1.378 0.079 2.065 0.127 0.016-1.523 0.054-3.043 0.041-4.564-0.704-0.477-1.396-0.971-2.090-1.459zM1.185 24.252c-0.129 0.463-0.261 0.926-0.393 1.389 1.362 1.561 3.055 2.81 4.891 3.758 0.454-0.538 0.899-1.085 1.341-1.63-0.533 0.018-1.067 0.025-1.6-0.002-0.014-1.643-0.005-3.286-0.007-4.929-1.409 0.474-2.823 0.937-4.233 1.414zM21.633 22.829c-0.020 1.609 0.011 3.225-0.086 4.832-0.549-0.007-1.096-0.043-1.643-0.073 0.558 0.59 1.11 1.182 1.679 1.763 1.741-0.912 3.352-2.108 4.634-3.608-0.148-0.44-0.288-0.883-0.433-1.323-1.389-0.52-2.767-1.064-4.151-1.591zM11.638 26.363c0.404 0.347 0.806 0.701 1.198 1.064-0.25 1.257-0.511 2.512-0.76 3.77 0.953 0.052 1.909 0.064 2.864 0.014-0.243-1.328-0.513-2.648-0.735-3.981 0.393-0.291 0.79-0.576 1.187-0.862-0.624-0.563-1.251-1.119-1.868-1.686-0.647 0.54-1.262 1.114-1.886 1.682zM11.216 26.732c-0.356 0.325-0.713 0.647-1.069 0.971 0.238 1.119 0.449 2.242 0.717 3.357 0.166 0.014 0.497 0.045 0.663 0.061 0.232-1.178 0.488-2.351 0.708-3.531-0.343-0.284-0.679-0.572-1.019-0.858zM14.795 27.47c0.234 1.223 0.465 2.449 0.692 3.674 0.159-0.016 0.477-0.050 0.635-0.066 0.268-1.117 0.52-2.24 0.778-3.359-0.361-0.329-0.724-0.656-1.087-0.983-0.34 0.243-0.681 0.488-1.019 0.733z">
  </path>
  <path d="M10.544 16.42c0.25-0.238 0.531 0.113 0.76 0.211 1.341 0.903 3.25 0.865 4.569-0.066 0.191-0.154 0.724-0.513 0.724-0.007-0.064 0.286-0.37 0.418-0.581 0.581-1.67 1.014-4.056 0.919-5.508-0.443 0.009-0.070 0.027-0.209 0.036-0.277z">
  </path>
</svg>
