<svg width="64" height="64" viewBox="0 0 64 64" fill="none" xmlns="http://www.w3.org/2000/svg">
<circle cx="44.3074" cy="19.6918" r="6.38458" stroke="#1D1D1B" stroke-width="2"/>
<circle cx="44.3074" cy="44.3072" r="6.38458" stroke="#1D1D1B" stroke-width="2"/>
<circle cx="19.6922" cy="19.6918" r="6.38458" stroke="#1D1D1B" stroke-width="2"/>
<circle cx="7.38458" cy="31.9999" r="6.38458" stroke="#1D1D1B" stroke-width="2"/>
<circle cx="56.6151" cy="31.9999" r="6.38458" stroke="#1D1D1B" stroke-width="2"/>
<circle cx="19.6922" cy="44.3072" r="6.38458" stroke="#1D1D1B" stroke-width="2"/>
<circle cx="32.0008" cy="31.9999" r="6.38458" stroke="#1D1D1B" stroke-width="2"/>
<circle cx="32.0008" cy="56.6154" r="6.38458" stroke="#1D1D1B" stroke-width="2"/>
<circle cx="32.0008" cy="7.3847" r="6.38458" stroke="#1D1D1B" stroke-width="2"/>
</svg>
