<svg width="22" height="22" viewBox="0 0 22 22" fill="none" xmlns="http://www.w3.org/2000/svg">
<path d="M21.7391 0H0V1.83128H21.7391V0Z" fill="currentColor"/>
<path d="M21.7391 6.41431H0V8.24559H21.7391V6.41431Z" fill="currentColor"/>
<path d="M21.7391 12.8284H0V14.6596H21.7391V12.8284Z" fill="currentColor"/>
<path d="M21.7391 19.2424H0V21.0737H21.7391V19.2424Z" fill="currentColor"/>
</svg>
